{
	"1" : {
		"date" : "",
		"class" : "",
		"url" : "cairngorms",
		"portfolio" : true,
		"images" : [6,7,8,9,10,11],
		"featured" : [7,8,10],
	    "language" : [{
	        "title": "",
	        "seoTitle" : "",
	        "description" : "",
	        "seoDescription" : "",
	        "url": "cairngorms"
	    },{
	        "title": "",
	        "seoTitle" : "",
	        "description" : "",
	        "seoDescription" : "",
	        "url": "cairngorms"
	    }]
	},
	"2" : {
		"date" : "",
		"class" : "",
		"url" : "fringe",
		"portfolio" : true,
		"images" : [32,33,34,35,36,37,38],
		"featured" : [32],
	    "language" : [{
	        "title": "",
	        "seoTitle" : "",
	        "description" : "",
	        "seoDescription" : "",
	        "url": "fringe"
	    },{
	        "title": "",
	        "seoTitle" : "",
	        "description" : "",
	        "seoDescription" : "",
	        "url": "fringe"
	    }]
	},
	"3" : {
		"date" : "",
		"class" : "",
		"url" : "angst",
		"portfolio" : true,
		"images" : [26,27,28,29,30,31],
		"featured" : [27,29,31],
	    "language" : [{
	        "title": "",
	        "seoTitle" : "",
	        "description" : "",
	        "seoDescription" : "",
	        "url": "angst"
	    },{
	        "title": "",
	        "seoTitle" : "",
	        "description" : "",
	        "seoDescription" : "",
	        "url": "fear"
	    }]
	},
	"4" : {
		"date" : "",
		"class" : "",
		"url" : "vesting",
		"portfolio" : true,
		"images" : [88,89,90,91,92],
		"featured" : [88,92],
	    "language" : [{
	        "title": "",
	        "seoTitle" : "",
	        "description" : "",
	        "seoDescription" : "",
	        "url": "vesting"
	    },{
	        "title": "",
	        "seoTitle" : "",
	        "description" : "",
	        "seoDescription" : "",
	        "url": "fortress"
	    }]
	},
	"5" : {
		"date" : "",
		"class" : "",
		"url" : "woman",
		"portfolio" : true,
		"images" : [93],
		"featured" : [93],
	    "language" : [{
	        "title": "",
	        "seoTitle" : "",
	        "description" : "",
	        "seoDescription" : "",
	        "url": "vrouw"
	    },{
	        "title": "",
	        "seoTitle" : "",
	        "description" : "",
	        "seoDescription" : "",
	        "url": "woman"
	    }]
	},
	"6" : {
		"date" : "",
		"class" : "",
		"url" : "erasmus",
		"portfolio" : true,
		"images" : [22,24,25,23],
		"featured" : [24,25],
	    "language" : [{
	        "title": "",
	        "seoTitle" : "",
	        "description" : "",
	        "seoDescription" : "",
	        "url": "erasmus"
	    },{
	        "title": "",
	        "seoTitle" : "",
	        "description" : "",
	        "seoDescription" : "",
	        "url": "erasmus"
	    }]
	},
	"7" : {
		"date" : "",
		"class" : "",
		"url" : "portret",
		"portfolio" : true,
		"images" : [66,62,63,64,65,67,108,69,71,73,74,72,75,76,100,101,68,103,104,105,106,12],
		"featured" : [66,64,75],
	    "language" : [{
	        "title": "",
	        "seoTitle" : "",
	        "description" : "",
	        "seoDescription" : "",
	        "url": "portret"
	    },{
	        "title": "",
	        "seoTitle" : "",
	        "description" : "",
	        "seoDescription" : "",
	        "url": "portrait"
	    }]
	},
	"8" : {
		"date" : "",
		"class" : "",
		"url" : "portal",
		"portfolio" : true,
		"images" : [13,14,15,16,17,18,19,20,21],
		"featured" : [],
	    "language" : [{
	        "title": "",
	        "seoTitle" : "",
	        "description" : "",
	        "seoDescription" : "",
	        "url": "poort"
	    },{
	        "title": "",
	        "seoTitle" : "",
	        "description" : "",
	        "seoDescription" : "",
	        "url": "portal"
	    }]
	},	
	"9" : {
		"date" : "",
		"class" : "",
		"url" : "zelf-portret",
		"portfolio" : true,
		"images" : [71,108,109],
		"featured" : [71],
	    "language" : [{
	        "title": "",
	        "seoTitle" : "",
	        "description" : "",
	        "seoDescription" : "",
	        "url": "zelf-portret"
	    },{
	        "title": "",
	        "seoTitle" : "",
	        "description" : "",
	        "seoDescription" : "",
	        "url": "self-portret"
	    }]
	},
	"10" : {
		"date" : "",
		"class" : "",
		"url" : "rue6",
		"portfolio" : true,
		"images" : [77,78,79,80,81,82,83],
		"featured" : [77,79,81],
	    "language" : [{
	        "title": "",
	        "seoTitle" : "",
	        "description" : "",
	        "seoDescription" : "",
	        "url": "rue6"
	    },{
	        "title": "",
	        "seoTitle" : "",
	        "description" : "",
	        "seoDescription" : "",
	        "url": "rue6"
	    }]
	},
	"11" : {
		"date" : "",
		"class" : "",
		"url" : "man-with-a-camera",
		"portfolio" : true,
		"images" : [47,48,49,51,52,53,54,60,58,59,61],
		"featured" : [48],
	    "language" : [{
	        "title": "",
	        "seoTitle" : "",
	        "description" : "",
	        "seoDescription" : "",
	        "url": "mensen-met-een-camera"
	    },{
	        "title": "",
	        "seoTitle" : "",
	        "description" : "",
	        "seoDescription" : "",
	        "url": "man-with-a-camera"
	    }]
	},
	"12" : {
		"date" : "",
		"class" : "",
		"url" : "fiets",
		"portfolio" : true,
		"images" : [70],
		"featured" : [70],
	    "language" : [{
	        "title": "",
	        "seoTitle" : "",
	        "description" : "",
	        "seoDescription" : "",
	        "url": "fietser"
	    },{
	        "title": "",
	        "seoTitle" : "",
	        "description" : "",
	        "seoDescription" : "",
	        "url": "biker"
	    }]
	},
	"13" : {
		"date" : "",
		"class" : "",
		"url" : "scifi",
		"portfolio" : true,
		"images" : [84,85,86,87],
		"featured" : [87],
	    "language" : [{
	        "title": "",
	        "seoTitle" : "",
	        "description" : "",
	        "seoDescription" : "",
	        "url": "scifi"
	    },{
	        "title": "",
	        "seoTitle" : "",
	        "description" : "",
	        "seoDescription" : "",
	        "url": "scifi"
	    }]
	},
	"14" : {
		"date" : "",
		"class" : "",
		"url" : "hal",
		"portfolio" : true,
		"images" : [39,40,41,42,43],
		"featured" : [39],
	    "language" : [{
	        "title": "",
	        "seoTitle" : "",
	        "description" : "",
	        "seoDescription" : "",
	        "url": "holland-america-line"
	    },{
	        "title": "",
	        "seoTitle" : "",
	        "description" : "",
	        "seoDescription" : "",
	        "url": "holland-america-line"
	    }]
	}
}