{
	"1" : {
		"class" : "",
	    "copyright" : "",
	    "width": "",
	    "height": "",
		"src" : "test01.jpg",
		"date" : "",
	    "geoloc" : [{
	    	"lat" : "",
	        "long": ""
	    }],
	    "language" : [{
	        "title": "",
	        "description" : "",
	        "alt" : ""
	    },{
	        "title": "",
	        "description" : "",
	        "alt" : ""
	    }]
	},
	"2" : {
		"class" : "",
	    "copyright" : "",
	    "width": "",
	    "height": "",
		"src" : "test02.jpg",
		"date" : "",
	    "geoloc" : [{
	    	"lat" : "",
	        "long": ""
	    }],
	    "language" : [{
	        "title": "",
	        "description" : "",
	        "alt" : ""
	    },{
	        "title": "",
	        "description" : "",
	        "alt" : ""
	    }]
	},
	"3" : {
		"class" : "",
	    "copyright" : "",
	    "width": "",
	    "height": "",
		"src" : "test03.jpg",
		"date" : "",
	    "geoloc" : [{
	    	"lat" : "",
	        "long": ""
	    }],
	    "language" : [{
	        "title": "",
	        "description" : "",
	        "alt" : ""
	    },{
	        "title": "",
	        "description" : "",
	        "alt" : ""
	    }]
	},
	"4" : {
		"class" : "",
	    "copyright" : "",
	    "width": "",
	    "height": "",
		"src" : "test04.jpg",
		"date" : "",
	    "geoloc" : [{
	    	"lat" : "",
	        "long": ""
	    }],
	    "language" : [{
	        "title": "",
	        "description" : "",
	        "alt" : ""
	    },{
	        "title": "",
	        "description" : "",
	        "alt" : ""
	    }]
	},
	"5" : {
		"class" : "",
	    "copyright" : "",
	    "width": "",
	    "height": "",
		"src" : "test05.jpg",
		"date" : "",
	    "geoloc" : [{
	    	"lat" : "",
	        "long": ""
	    }],
	    "language" : [{
	        "title": "",
	        "description" : "",
	        "alt" : ""
	    },{
	        "title": "",
	        "description" : "",
	        "alt" : ""
	    }]
	},
	"6" : {
		"class" : "",
	    "copyright" : "",
	    "width": "",
	    "height": "",
		"src" : "cairngorms-1.jpg",
		"date" : "",
	    "geoloc" : [{
	    	"lat" : "",
	        "long": ""
	    }],
	    "language" : [{
	        "title": "",
	        "description" : "",
	        "alt" : ""
	    },{
	        "title": "",
	        "description" : "",
	        "alt" : ""
	    }]
	},
	"7" : {
		"class" : "",
	    "copyright" : "",
	    "width": "",
	    "height": "",
		"src" : "cairngorms-2.jpg",
		"date" : "",
	    "geoloc" : [{
	    	"lat" : "",
	        "long": ""
	    }],
	    "language" : [{
	        "title": "",
	        "description" : "",
	        "alt" : ""
	    },{
	        "title": "",
	        "description" : "",
	        "alt" : ""
	    }]
	},
	"8" : {
		"class" : "",
	    "copyright" : "",
	    "width": "",
	    "height": "",
		"src" : "cairngorms-3.jpg",
		"date" : "",
	    "geoloc" : [{
	    	"lat" : "",
	        "long": ""
	    }],
	    "language" : [{
	        "title": "",
	        "description" : "",
	        "alt" : ""
	    },{
	        "title": "",
	        "description" : "",
	        "alt" : ""
	    }]
	},
	"9" : {
		"class" : "",
	    "copyright" : "",
	    "width": "",
	    "height": "",
		"src" : "cairngorms-4.jpg",
		"date" : "",
	    "geoloc" : [{
	    	"lat" : "",
	        "long": ""
	    }],
	    "language" : [{
	        "title": "",
	        "description" : "",
	        "alt" : ""
	    },{
	        "title": "",
	        "description" : "",
	        "alt" : ""
	    }]
	},
	"10" : {
		"class" : "",
	    "copyright" : "",
	    "width": "",
	    "height": "",
		"src" : "cairngorms-5.jpg",
		"date" : "",
	    "geoloc" : [{
	    	"lat" : "",
	        "long": ""
	    }],
	    "language" : [{
	        "title": "",
	        "description" : "",
	        "alt" : ""
	    },{
	        "title": "",
	        "description" : "",
	        "alt" : ""
	    }]
	},
	"11" : {
		"class" : "",
	    "copyright" : "",
	    "width": "",
	    "height": "",
		"src" : "cairngorms-6.jpg",
		"date" : "",
	    "geoloc" : [{
	    	"lat" : "",
	        "long": ""
	    }],
	    "language" : [{
	        "title": "",
	        "description" : "",
	        "alt" : ""
	    },{
	        "title": "",
	        "description" : "",
	        "alt" : ""
	    }]
	},
	"12" : {
		"class" : "",
	    "copyright" : "",
	    "width": "",
	    "height": "",
		"src" : "dax-1.jpg",
		"date" : "",
	    "geoloc" : [{
	    	"lat" : "",
	        "long": ""
	    }],
	    "language" : [{
	        "title": "",
	        "description" : "",
	        "alt" : ""
	    },{
	        "title": "",
	        "description" : "",
	        "alt" : ""
	    }]
	},
	"13" : {
		"class" : "",
	    "copyright" : "",
	    "width": "",
	    "height": "",
		"src" : "deur-1.jpg",
		"date" : "",
	    "geoloc" : [{
	    	"lat" : "",
	        "long": ""
	    }],
	    "language" : [{
	        "title": "",
	        "description" : "",
	        "alt" : ""
	    },{
	        "title": "",
	        "description" : "",
	        "alt" : ""
	    }]
	},
	"14" : {
		"class" : "",
	    "copyright" : "",
	    "width": "",
	    "height": "",
		"src" : "deur-2.jpg",
		"date" : "",
	    "geoloc" : [{
	    	"lat" : "",
	        "long": ""
	    }],
	    "language" : [{
	        "title": "",
	        "description" : "",
	        "alt" : ""
	    },{
	        "title": "",
	        "description" : "",
	        "alt" : ""
	    }]
	},
	"15" : {
		"class" : "",
	    "copyright" : "",
	    "width": "",
	    "height": "",
		"src" : "deur-3.jpg",
		"date" : "",
	    "geoloc" : [{
	    	"lat" : "",
	        "long": ""
	    }],
	    "language" : [{
	        "title": "",
	        "description" : "",
	        "alt" : ""
	    },{
	        "title": "",
	        "description" : "",
	        "alt" : ""
	    }]
	},
	"16" : {
		"class" : "",
	    "copyright" : "",
	    "width": "",
	    "height": "",
		"src" : "deur-4.jpg",
		"date" : "",
	    "geoloc" : [{
	    	"lat" : "",
	        "long": ""
	    }],
	    "language" : [{
	        "title": "",
	        "description" : "",
	        "alt" : ""
	    },{
	        "title": "",
	        "description" : "",
	        "alt" : ""
	    }]
	},
	"17" : {
		"class" : "",
	    "copyright" : "",
	    "width": "",
	    "height": "",
		"src" : "deur-5.jpg",
		"date" : "",
	    "geoloc" : [{
	    	"lat" : "",
	        "long": ""
	    }],
	    "language" : [{
	        "title": "",
	        "description" : "",
	        "alt" : ""
	    },{
	        "title": "",
	        "description" : "",
	        "alt" : ""
	    }]
	},
	"18" : {
		"class" : "",
	    "copyright" : "",
	    "width": "",
	    "height": "",
		"src" : "deur-6.jpg",
		"date" : "",
	    "geoloc" : [{
	    	"lat" : "",
	        "long": ""
	    }],
	    "language" : [{
	        "title": "",
	        "description" : "",
	        "alt" : ""
	    },{
	        "title": "",
	        "description" : "",
	        "alt" : ""
	    }]
	},
	"19" : {
		"class" : "",
	    "copyright" : "",
	    "width": "",
	    "height": "",
		"src" : "deur-7.jpg",
		"date" : "",
	    "geoloc" : [{
	    	"lat" : "",
	        "long": ""
	    }],
	    "language" : [{
	        "title": "",
	        "description" : "",
	        "alt" : ""
	    },{
	        "title": "",
	        "description" : "",
	        "alt" : ""
	    }]
	},
	"20" : {
		"class" : "",
	    "copyright" : "",
	    "width": "",
	    "height": "",
		"src" : "deur-8.jpg",
		"date" : "",
	    "geoloc" : [{
	    	"lat" : "",
	        "long": ""
	    }],
	    "language" : [{
	        "title": "",
	        "description" : "",
	        "alt" : ""
	    },{
	        "title": "",
	        "description" : "",
	        "alt" : ""
	    }]
	},
	"21" : {
		"class" : "",
	    "copyright" : "",
	    "width": "",
	    "height": "",
		"src" : "deur-9.jpg",
		"date" : "",
	    "geoloc" : [{
	    	"lat" : "",
	        "long": ""
	    }],
	    "language" : [{
	        "title": "",
	        "description" : "",
	        "alt" : ""
	    },{
	        "title": "",
	        "description" : "",
	        "alt" : ""
	    }]
	},
	"22" : {
		"class" : "",
	    "copyright" : "",
	    "width": "",
	    "height": "",
		"src" : "erasmus-1.jpg",
		"date" : "",
	    "geoloc" : [{
	    	"lat" : "",
	        "long": ""
	    }],
	    "language" : [{
	        "title": "",
	        "description" : "",
	        "alt" : ""
	    },{
	        "title": "",
	        "description" : "",
	        "alt" : ""
	    }]
	},
	"23" : {
		"class" : "",
	    "copyright" : "",
	    "width": "",
	    "height": "",
		"src" : "erasmus-2.jpg",
		"date" : "",
	    "geoloc" : [{
	    	"lat" : "",
	        "long": ""
	    }],
	    "language" : [{
	        "title": "",
	        "description" : "",
	        "alt" : ""
	    },{
	        "title": "",
	        "description" : "",
	        "alt" : ""
	    }]
	},
	"24" : {
		"class" : "",
	    "copyright" : "",
	    "width": "",
	    "height": "",
		"src" : "erasmus-3.jpg",
		"date" : "",
	    "geoloc" : [{
	    	"lat" : "",
	        "long": ""
	    }],
	    "language" : [{
	        "title": "",
	        "description" : "",
	        "alt" : ""
	    },{
	        "title": "",
	        "description" : "",
	        "alt" : ""
	    }]
	},
	"25" : {
		"class" : "",
	    "copyright" : "",
	    "width": "",
	    "height": "",
		"src" : "erasmus-4.jpg",
		"date" : "",
	    "geoloc" : [{
	    	"lat" : "",
	        "long": ""
	    }],
	    "language" : [{
	        "title": "",
	        "description" : "",
	        "alt" : ""
	    },{
	        "title": "",
	        "description" : "",
	        "alt" : ""
	    }]
	},
	"26" : {
		"class" : "",
	    "copyright" : "",
	    "width": "",
	    "height": "",
		"src" : "fear-1.jpg",
		"date" : "",
	    "geoloc" : [{
	    	"lat" : "",
	        "long": ""
	    }],
	    "language" : [{
	        "title": "",
	        "description" : "",
	        "alt" : ""
	    },{
	        "title": "",
	        "description" : "",
	        "alt" : ""
	    }]
	},
	"27" : {
		"class" : "",
	    "copyright" : "",
	    "width": "",
	    "height": "",
		"src" : "fear-2.jpg",
		"date" : "",
	    "geoloc" : [{
	    	"lat" : "",
	        "long": ""
	    }],
	    "language" : [{
	        "title": "",
	        "description" : "",
	        "alt" : ""
	    },{
	        "title": "",
	        "description" : "",
	        "alt" : ""
	    }]
	},
	"28" : {
		"class" : "",
	    "copyright" : "",
	    "width": "",
	    "height": "",
		"src" : "fear-3.jpg",
		"date" : "",
	    "geoloc" : [{
	    	"lat" : "",
	        "long": ""
	    }],
	    "language" : [{
	        "title": "",
	        "description" : "",
	        "alt" : ""
	    },{
	        "title": "",
	        "description" : "",
	        "alt" : ""
	    }]
	},
	"29" : {
		"class" : "",
	    "copyright" : "",
	    "width": "",
	    "height": "",
		"src" : "fear-4.jpg",
		"date" : "",
	    "geoloc" : [{
	    	"lat" : "",
	        "long": ""
	    }],
	    "language" : [{
	        "title": "",
	        "description" : "",
	        "alt" : ""
	    },{
	        "title": "",
	        "description" : "",
	        "alt" : ""
	    }]
	},
	"30" : {
		"class" : "",
	    "copyright" : "",
	    "width": "",
	    "height": "",
		"src" : "fear-5.jpg",
		"date" : "",
	    "geoloc" : [{
	    	"lat" : "",
	        "long": ""
	    }],
	    "language" : [{
	        "title": "",
	        "description" : "",
	        "alt" : ""
	    },{
	        "title": "",
	        "description" : "",
	        "alt" : ""
	    }]
	},
	"31" : {
		"class" : "",
	    "copyright" : "",
	    "width": "",
	    "height": "",
		"src" : "fear-6.jpg",
		"date" : "",
	    "geoloc" : [{
	    	"lat" : "",
	        "long": ""
	    }],
	    "language" : [{
	        "title": "",
	        "description" : "",
	        "alt" : ""
	    },{
	        "title": "",
	        "description" : "",
	        "alt" : ""
	    }]
	},
	"32" : {
		"class" : "",
	    "copyright" : "",
	    "width": "",
	    "height": "",
		"src" : "fringe-1.jpg",
		"date" : "",
	    "geoloc" : [{
	    	"lat" : "",
	        "long": ""
	    }],
	    "language" : [{
	        "title": "",
	        "description" : "",
	        "alt" : ""
	    },{
	        "title": "",
	        "description" : "",
	        "alt" : ""
	    }]
	},
	"33" : {
		"class" : "",
	    "copyright" : "",
	    "width": "",
	    "height": "",
		"src" : "fringe-2.jpg",
		"date" : "",
	    "geoloc" : [{
	    	"lat" : "",
	        "long": ""
	    }],
	    "language" : [{
	        "title": "",
	        "description" : "",
	        "alt" : ""
	    },{
	        "title": "",
	        "description" : "",
	        "alt" : ""
	    }]
	},
	"34" : {
		"class" : "",
	    "copyright" : "",
	    "width": "",
	    "height": "",
		"src" : "fringe-3.jpg",
		"date" : "",
	    "geoloc" : [{
	    	"lat" : "",
	        "long": ""
	    }],
	    "language" : [{
	        "title": "",
	        "description" : "",
	        "alt" : ""
	    },{
	        "title": "",
	        "description" : "",
	        "alt" : ""
	    }]
	},
	"35" : {
		"class" : "",
	    "copyright" : "",
	    "width": "",
	    "height": "",
		"src" : "fringe-4.jpg",
		"date" : "",
	    "geoloc" : [{
	    	"lat" : "",
	        "long": ""
	    }],
	    "language" : [{
	        "title": "",
	        "description" : "",
	        "alt" : ""
	    },{
	        "title": "",
	        "description" : "",
	        "alt" : ""
	    }]
	},
	"36" : {
		"class" : "",
	    "copyright" : "",
	    "width": "",
	    "height": "",
		"src" : "fringe-5.jpg",
		"date" : "",
	    "geoloc" : [{
	    	"lat" : "",
	        "long": ""
	    }],
	    "language" : [{
	        "title": "",
	        "description" : "",
	        "alt" : ""
	    },{
	        "title": "",
	        "description" : "",
	        "alt" : ""
	    }]
	},
	"37" : {
		"class" : "",
	    "copyright" : "",
	    "width": "",
	    "height": "",
		"src" : "fringe-6.jpg",
		"date" : "",
	    "geoloc" : [{
	    	"lat" : "",
	        "long": ""
	    }],
	    "language" : [{
	        "title": "",
	        "description" : "",
	        "alt" : ""
	    },{
	        "title": "",
	        "description" : "",
	        "alt" : ""
	    }]
	},
	"38" : {
		"class" : "",
	    "copyright" : "",
	    "width": "",
	    "height": "",
		"src" : "fringe-7.jpg",
		"date" : "",
	    "geoloc" : [{
	    	"lat" : "",
	        "long": ""
	    }],
	    "language" : [{
	        "title": "",
	        "description" : "",
	        "alt" : ""
	    },{
	        "title": "",
	        "description" : "",
	        "alt" : ""
	    }]
	},
	"39" : {
		"class" : "",
	    "copyright" : "",
	    "width": "",
	    "height": "",
		"src" : "hal-1.jpg",
		"date" : "",
	    "geoloc" : [{
	    	"lat" : "",
	        "long": ""
	    }],
	    "language" : [{
	        "title": "",
	        "description" : "",
	        "alt" : ""
	    },{
	        "title": "",
	        "description" : "",
	        "alt" : ""
	    }]
	},
	"40" : {
		"class" : "",
	    "copyright" : "",
	    "width": "",
	    "height": "",
		"src" : "hal-2.jpg",
		"date" : "",
	    "geoloc" : [{
	    	"lat" : "",
	        "long": ""
	    }],
	    "language" : [{
	        "title": "",
	        "description" : "",
	        "alt" : ""
	    },{
	        "title": "",
	        "description" : "",
	        "alt" : ""
	    }]
	},
	"41" : {
		"class" : "",
	    "copyright" : "",
	    "width": "",
	    "height": "",
		"src" : "hal-3.jpg",
		"date" : "",
	    "geoloc" : [{
	    	"lat" : "",
	        "long": ""
	    }],
	    "language" : [{
	        "title": "",
	        "description" : "",
	        "alt" : ""
	    },{
	        "title": "",
	        "description" : "",
	        "alt" : ""
	    }]
	},
	"42" : {
		"class" : "",
	    "copyright" : "",
	    "width": "",
	    "height": "",
		"src" : "hal-4.jpg",
		"date" : "",
	    "geoloc" : [{
	    	"lat" : "",
	        "long": ""
	    }],
	    "language" : [{
	        "title": "",
	        "description" : "",
	        "alt" : ""
	    },{
	        "title": "",
	        "description" : "",
	        "alt" : ""
	    }]
	},
	"43" : {
		"class" : "",
	    "copyright" : "",
	    "width": "",
	    "height": "",
		"src" : "hal-5.jpg",
		"date" : "",
	    "geoloc" : [{
	    	"lat" : "",
	        "long": ""
	    }],
	    "language" : [{
	        "title": "",
	        "description" : "",
	        "alt" : ""
	    },{
	        "title": "",
	        "description" : "",
	        "alt" : ""
	    }]
	},
	"44" : {
		"class" : "",
	    "copyright" : "",
	    "width": "",
	    "height": "",
		"src" : "industrie-1.jpg",
		"date" : "",
	    "geoloc" : [{
	    	"lat" : "",
	        "long": ""
	    }],
	    "language" : [{
	        "title": "",
	        "description" : "",
	        "alt" : ""
	    },{
	        "title": "",
	        "description" : "",
	        "alt" : ""
	    }]
	},
	"45" : {
		"class" : "",
	    "copyright" : "",
	    "width": "",
	    "height": "",
		"src" : "industrie-2.jpg",
		"date" : "",
	    "geoloc" : [{
	    	"lat" : "",
	        "long": ""
	    }],
	    "language" : [{
	        "title": "",
	        "description" : "",
	        "alt" : ""
	    },{
	        "title": "",
	        "description" : "",
	        "alt" : ""
	    }]
	},
	"46" : {
		"class" : "",
	    "copyright" : "",
	    "width": "",
	    "height": "",
		"src" : "industrie-3.jpg",
		"date" : "",
	    "geoloc" : [{
	    	"lat" : "",
	        "long": ""
	    }],
	    "language" : [{
	        "title": "",
	        "description" : "",
	        "alt" : ""
	    },{
	        "title": "",
	        "description" : "",
	        "alt" : ""
	    }]
	},
	"47" : {
		"class" : "",
	    "copyright" : "",
	    "width": "",
	    "height": "",
		"src" : "man-with-a-camera-1.jpg",
		"date" : "",
	    "geoloc" : [{
	    	"lat" : "",
	        "long": ""
	    }],
	    "language" : [{
	        "title": "",
	        "description" : "",
	        "alt" : ""
	    },{
	        "title": "",
	        "description" : "",
	        "alt" : ""
	    }]
	},
	"48" : {
		"class" : "",
	    "copyright" : "",
	    "width": "",
	    "height": "",
		"src" : "man-with-a-camera-2.jpg",
		"date" : "",
	    "geoloc" : [{
	    	"lat" : "",
	        "long": ""
	    }],
	    "language" : [{
	        "title": "",
	        "description" : "",
	        "alt" : ""
	    },{
	        "title": "",
	        "description" : "",
	        "alt" : ""
	    }]
	},
	"49" : {
		"class" : "",
	    "copyright" : "",
	    "width": "",
	    "height": "",
		"src" : "man-with-a-camera-3.jpg",
		"date" : "",
	    "geoloc" : [{
	    	"lat" : "",
	        "long": ""
	    }],
	    "language" : [{
	        "title": "",
	        "description" : "",
	        "alt" : ""
	    },{
	        "title": "",
	        "description" : "",
	        "alt" : ""
	    }]
	},
	"50" : {
		"class" : "",
	    "copyright" : "",
	    "width": "",
	    "height": "",
		"src" : "man-with-a-camera-4.jpg",
		"date" : "",
	    "geoloc" : [{
	    	"lat" : "",
	        "long": ""
	    }],
	    "language" : [{
	        "title": "",
	        "description" : "",
	        "alt" : ""
	    },{
	        "title": "",
	        "description" : "",
	        "alt" : ""
	    }]
	},
	"51" : {
		"class" : "",
	    "copyright" : "",
	    "width": "",
	    "height": "",
		"src" : "man-with-a-camera-5.jpg",
		"date" : "",
	    "geoloc" : [{
	    	"lat" : "",
	        "long": ""
	    }],
	    "language" : [{
	        "title": "",
	        "description" : "",
	        "alt" : ""
	    },{
	        "title": "",
	        "description" : "",
	        "alt" : ""
	    }]
	},
	"52" : {
		"class" : "",
	    "copyright" : "",
	    "width": "",
	    "height": "",
		"src" : "man-with-a-camera-6.jpg",
		"date" : "",
	    "geoloc" : [{
	    	"lat" : "",
	        "long": ""
	    }],
	    "language" : [{
	        "title": "",
	        "description" : "",
	        "alt" : ""
	    },{
	        "title": "",
	        "description" : "",
	        "alt" : ""
	    }]
	},
	"53" : {
		"class" : "",
	    "copyright" : "",
	    "width": "",
	    "height": "",
		"src" : "man-with-a-camera-7.jpg",
		"date" : "",
	    "geoloc" : [{
	    	"lat" : "",
	        "long": ""
	    }],
	    "language" : [{
	        "title": "",
	        "description" : "",
	        "alt" : ""
	    },{
	        "title": "",
	        "description" : "",
	        "alt" : ""
	    }]
	},
	"54" : {
		"class" : "",
	    "copyright" : "",
	    "width": "",
	    "height": "",
		"src" : "man-with-a-camera-8.jpg",
		"date" : "",
	    "geoloc" : [{
	    	"lat" : "",
	        "long": ""
	    }],
	    "language" : [{
	        "title": "",
	        "description" : "",
	        "alt" : ""
	    },{
	        "title": "",
	        "description" : "",
	        "alt" : ""
	    }]
	},
	"55" : {
		"class" : "",
	    "copyright" : "",
	    "width": "",
	    "height": "",
		"src" : "man-with-a-camera-9.jpg",
		"date" : "",
	    "geoloc" : [{
	    	"lat" : "",
	        "long": ""
	    }],
	    "language" : [{
	        "title": "",
	        "description" : "",
	        "alt" : ""
	    },{
	        "title": "",
	        "description" : "",
	        "alt" : ""
	    }]
	},
	"56" : {
		"class" : "",
	    "copyright" : "",
	    "width": "",
	    "height": "",
		"src" : "man-with-a-camera-10.jpg",
		"date" : "",
	    "geoloc" : [{
	    	"lat" : "",
	        "long": ""
	    }],
	    "language" : [{
	        "title": "",
	        "description" : "",
	        "alt" : ""
	    },{
	        "title": "",
	        "description" : "",
	        "alt" : ""
	    }]
	},
	"57" : {
		"class" : "",
	    "copyright" : "",
	    "width": "",
	    "height": "",
		"src" : "man-with-a-camera-11.jpg",
		"date" : "",
	    "geoloc" : [{
	    	"lat" : "",
	        "long": ""
	    }],
	    "language" : [{
	        "title": "",
	        "description" : "",
	        "alt" : ""
	    },{
	        "title": "",
	        "description" : "",
	        "alt" : ""
	    }]
	},
	"58" : {
		"class" : "",
	    "copyright" : "",
	    "width": "",
	    "height": "",
		"src" : "man-with-a-camera-12.jpg",
		"date" : "",
	    "geoloc" : [{
	    	"lat" : "",
	        "long": ""
	    }],
	    "language" : [{
	        "title": "",
	        "description" : "",
	        "alt" : ""
	    },{
	        "title": "",
	        "description" : "",
	        "alt" : ""
	    }]
	},
	"59" : {
		"class" : "",
	    "copyright" : "",
	    "width": "",
	    "height": "",
		"src" : "man-with-a-camera-13.jpg",
		"date" : "",
	    "geoloc" : [{
	    	"lat" : "",
	        "long": ""
	    }],
	    "language" : [{
	        "title": "",
	        "description" : "",
	        "alt" : ""
	    },{
	        "title": "",
	        "description" : "",
	        "alt" : ""
	    }]
	},
	"60" : {
		"class" : "",
	    "copyright" : "",
	    "width": "",
	    "height": "",
		"src" : "man-with-a-camera-14.jpg",
		"date" : "",
	    "geoloc" : [{
	    	"lat" : "",
	        "long": ""
	    }],
	    "language" : [{
	        "title": "",
	        "description" : "",
	        "alt" : ""
	    },{
	        "title": "",
	        "description" : "",
	        "alt" : ""
	    }]
	},
	"61" : {
		"class" : "",
	    "copyright" : "",
	    "width": "",
	    "height": "",
		"src" : "man-with-a-camera-15.jpg",
		"date" : "",
	    "geoloc" : [{
	    	"lat" : "",
	        "long": ""
	    }],
	    "language" : [{
	        "title": "",
	        "description" : "",
	        "alt" : ""
	    },{
	        "title": "",
	        "description" : "",
	        "alt" : ""
	    }]
	},
	"62" : {
		"class" : "",
	    "copyright" : "",
	    "width": "",
	    "height": "",
		"src" : "portret-1.jpg",
		"date" : "",
	    "geoloc" : [{
	    	"lat" : "",
	        "long": ""
	    }],
	    "language" : [{
	        "title": "",
	        "description" : "",
	        "alt" : ""
	    },{
	        "title": "",
	        "description" : "",
	        "alt" : ""
	    }]
	},
	"63" : {
		"class" : "",
	    "copyright" : "",
	    "width": "",
	    "height": "",
		"src" : "portret-2.jpg",
		"date" : "",
	    "geoloc" : [{
	    	"lat" : "",
	        "long": ""
	    }],
	    "language" : [{
	        "title": "",
	        "description" : "",
	        "alt" : ""
	    },{
	        "title": "",
	        "description" : "",
	        "alt" : ""
	    }]
	},
	"64" : {
		"class" : "",
	    "copyright" : "",
	    "width": "",
	    "height": "",
		"src" : "portret-3.jpg",
		"date" : "",
	    "geoloc" : [{
	    	"lat" : "",
	        "long": ""
	    }],
	    "language" : [{
	        "title": "",
	        "description" : "",
	        "alt" : ""
	    },{
	        "title": "",
	        "description" : "",
	        "alt" : ""
	    }]
	},
	"65" : {
		"class" : "",
	    "copyright" : "",
	    "width": "",
	    "height": "",
		"src" : "portret-4.jpg",
		"date" : "",
	    "geoloc" : [{
	    	"lat" : "",
	        "long": ""
	    }],
	    "language" : [{
	        "title": "",
	        "description" : "",
	        "alt" : ""
	    },{
	        "title": "",
	        "description" : "",
	        "alt" : ""
	    }]
	},
	"66" : {
		"class" : "",
	    "copyright" : "",
	    "width": "",
	    "height": "",
		"src" : "portret-5.jpg",
		"date" : "",
	    "geoloc" : [{
	    	"lat" : "",
	        "long": ""
	    }],
	    "language" : [{
	        "title": "",
	        "description" : "",
	        "alt" : ""
	    },{
	        "title": "",
	        "description" : "",
	        "alt" : ""
	    }]
	},
	"67" : {
		"class" : "",
	    "copyright" : "",
	    "width": "",
	    "height": "",
		"src" : "portret-6.jpg",
		"date" : "",
	    "geoloc" : [{
	    	"lat" : "",
	        "long": ""
	    }],
	    "language" : [{
	        "title": "",
	        "description" : "",
	        "alt" : ""
	    },{
	        "title": "",
	        "description" : "",
	        "alt" : ""
	    }]
	},
	"68" : {
		"class" : "",
	    "copyright" : "",
	    "width": "",
	    "height": "",
		"src" : "portret-7.jpg",
		"date" : "",
	    "geoloc" : [{
	    	"lat" : "",
	        "long": ""
	    }],
	    "language" : [{
	        "title": "",
	        "description" : "",
	        "alt" : ""
	    },{
	        "title": "",
	        "description" : "",
	        "alt" : ""
	    }]
	},
	"69" : {
		"class" : "",
	    "copyright" : "",
	    "width": "",
	    "height": "",
		"src" : "portret-8.jpg",
		"date" : "",
	    "geoloc" : [{
	    	"lat" : "",
	        "long": ""
	    }],
	    "language" : [{
	        "title": "",
	        "description" : "",
	        "alt" : ""
	    },{
	        "title": "",
	        "description" : "",
	        "alt" : ""
	    }]
	},
	"70" : {
		"class" : "",
	    "copyright" : "",
	    "width": "",
	    "height": "",
		"src" : "portret-9.jpg",
		"date" : "",
	    "geoloc" : [{
	    	"lat" : "",
	        "long": ""
	    }],
	    "language" : [{
	        "title": "",
	        "description" : "",
	        "alt" : ""
	    },{
	        "title": "",
	        "description" : "",
	        "alt" : ""
	    }]
	},
	"71" : {
		"class" : "",
	    "copyright" : "",
	    "width": "",
	    "height": "",
		"src" : "portret-10.jpg",
		"date" : "",
	    "geoloc" : [{
	    	"lat" : "",
	        "long": ""
	    }],
	    "language" : [{
	        "title": "",
	        "description" : "",
	        "alt" : ""
	    },{
	        "title": "",
	        "description" : "",
	        "alt" : ""
	    }]
	},
	"72" : {
		"class" : "",
	    "copyright" : "",
	    "width": "",
	    "height": "",
		"src" : "portret-11.jpg",
		"date" : "",
	    "geoloc" : [{
	    	"lat" : "",
	        "long": ""
	    }],
	    "language" : [{
	        "title": "",
	        "description" : "",
	        "alt" : ""
	    },{
	        "title": "",
	        "description" : "",
	        "alt" : ""
	    }]
	},
	"73" : {
		"class" : "",
	    "copyright" : "",
	    "width": "",
	    "height": "",
		"src" : "portret-12.jpg",
		"date" : "",
	    "geoloc" : [{
	    	"lat" : "",
	        "long": ""
	    }],
	    "language" : [{
	        "title": "",
	        "description" : "",
	        "alt" : ""
	    },{
	        "title": "",
	        "description" : "",
	        "alt" : ""
	    }]
	},
	"74" : {
		"class" : "",
	    "copyright" : "",
	    "width": "",
	    "height": "",
		"src" : "portret-13.jpg",
		"date" : "",
	    "geoloc" : [{
	    	"lat" : "",
	        "long": ""
	    }],
	    "language" : [{
	        "title": "",
	        "description" : "",
	        "alt" : ""
	    },{
	        "title": "",
	        "description" : "",
	        "alt" : ""
	    }]
	},
	"75" : {
		"class" : "",
	    "copyright" : "",
	    "width": "",
	    "height": "",
		"src" : "portret-14.jpg",
		"date" : "",
	    "geoloc" : [{
	    	"lat" : "",
	        "long": ""
	    }],
	    "language" : [{
	        "title": "",
	        "description" : "",
	        "alt" : ""
	    },{
	        "title": "",
	        "description" : "",
	        "alt" : ""
	    }]
	},
	"76" : {
		"class" : "",
	    "copyright" : "",
	    "width": "",
	    "height": "",
		"src" : "portret-15.jpg",
		"date" : "",
	    "geoloc" : [{
	    	"lat" : "",
	        "long": ""
	    }],
	    "language" : [{
	        "title": "",
	        "description" : "",
	        "alt" : ""
	    },{
	        "title": "",
	        "description" : "",
	        "alt" : ""
	    }]
	},
	"77" : {
		"class" : "",
	    "copyright" : "",
	    "width": "",
	    "height": "",
		"src" : "rue6-1.jpg",
		"date" : "",
	    "geoloc" : [{
	    	"lat" : "",
	        "long": ""
	    }],
	    "language" : [{
	        "title": "",
	        "description" : "",
	        "alt" : ""
	    },{
	        "title": "",
	        "description" : "",
	        "alt" : ""
	    }]
	},
	"78" : {
		"class" : "",
	    "copyright" : "",
	    "width": "",
	    "height": "",
		"src" : "rue6-2.jpg",
		"date" : "",
	    "geoloc" : [{
	    	"lat" : "",
	        "long": ""
	    }],
	    "language" : [{
	        "title": "",
	        "description" : "",
	        "alt" : ""
	    },{
	        "title": "",
	        "description" : "",
	        "alt" : ""
	    }]
	},
	"79" : {
		"class" : "",
	    "copyright" : "",
	    "width": "",
	    "height": "",
		"src" : "rue6-3.jpg",
		"date" : "",
	    "geoloc" : [{
	    	"lat" : "",
	        "long": ""
	    }],
	    "language" : [{
	        "title": "",
	        "description" : "",
	        "alt" : ""
	    },{
	        "title": "",
	        "description" : "",
	        "alt" : ""
	    }]
	},
	"80" : {
		"class" : "",
	    "copyright" : "",
	    "width": "",
	    "height": "",
		"src" : "rue6-4.jpg",
		"date" : "",
	    "geoloc" : [{
	    	"lat" : "",
	        "long": ""
	    }],
	    "language" : [{
	        "title": "",
	        "description" : "",
	        "alt" : ""
	    },{
	        "title": "",
	        "description" : "",
	        "alt" : ""
	    }]
	},
	"81" : {
		"class" : "",
	    "copyright" : "",
	    "width": "",
	    "height": "",
		"src" : "rue6-5.jpg",
		"date" : "",
	    "geoloc" : [{
	    	"lat" : "",
	        "long": ""
	    }],
	    "language" : [{
	        "title": "",
	        "description" : "",
	        "alt" : ""
	    },{
	        "title": "",
	        "description" : "",
	        "alt" : ""
	    }]
	},
	"82" : {
		"class" : "",
	    "copyright" : "",
	    "width": "",
	    "height": "",
		"src" : "rue6-6.jpg",
		"date" : "",
	    "geoloc" : [{
	    	"lat" : "",
	        "long": ""
	    }],
	    "language" : [{
	        "title": "",
	        "description" : "",
	        "alt" : ""
	    },{
	        "title": "",
	        "description" : "",
	        "alt" : ""
	    }]
	},
	"83" : {
		"class" : "",
	    "copyright" : "",
	    "width": "",
	    "height": "",
		"src" : "rue6-7.jpg",
		"date" : "",
	    "geoloc" : [{
	    	"lat" : "",
	        "long": ""
	    }],
	    "language" : [{
	        "title": "",
	        "description" : "",
	        "alt" : ""
	    },{
	        "title": "",
	        "description" : "",
	        "alt" : ""
	    }]
	},
	"84" : {
		"class" : "",
	    "copyright" : "",
	    "width": "",
	    "height": "",
		"src" : "scifi-1.jpg",
		"date" : "",
	    "geoloc" : [{
	    	"lat" : "",
	        "long": ""
	    }],
	    "language" : [{
	        "title": "",
	        "description" : "",
	        "alt" : ""
	    },{
	        "title": "",
	        "description" : "",
	        "alt" : ""
	    }]
	},
	"85" : {
		"class" : "",
	    "copyright" : "",
	    "width": "",
	    "height": "",
		"src" : "scifi-2.jpg",
		"date" : "",
	    "geoloc" : [{
	    	"lat" : "",
	        "long": ""
	    }],
	    "language" : [{
	        "title": "",
	        "description" : "",
	        "alt" : ""
	    },{
	        "title": "",
	        "description" : "",
	        "alt" : ""
	    }]
	},
	"86" : {
		"class" : "",
	    "copyright" : "",
	    "width": "",
	    "height": "",
		"src" : "scifi-3.jpg",
		"date" : "",
	    "geoloc" : [{
	    	"lat" : "",
	        "long": ""
	    }],
	    "language" : [{
	        "title": "",
	        "description" : "",
	        "alt" : ""
	    },{
	        "title": "",
	        "description" : "",
	        "alt" : ""
	    }]
	},
	"87" : {
		"class" : "",
	    "copyright" : "",
	    "width": "",
	    "height": "",
		"src" : "scifi-4.jpg",
		"date" : "",
	    "geoloc" : [{
	    	"lat" : "",
	        "long": ""
	    }],
	    "language" : [{
	        "title": "",
	        "description" : "",
	        "alt" : ""
	    },{
	        "title": "",
	        "description" : "",
	        "alt" : ""
	    }]
	},
	"88" : {
		"class" : "",
	    "copyright" : "",
	    "width": "",
	    "height": "",
		"src" : "vesting-1.jpg",
		"date" : "",
	    "geoloc" : [{
	    	"lat" : "",
	        "long": ""
	    }],
	    "language" : [{
	        "title": "",
	        "description" : "",
	        "alt" : ""
	    },{
	        "title": "",
	        "description" : "",
	        "alt" : ""
	    }]
	},
	"89" : {
		"class" : "",
	    "copyright" : "",
	    "width": "",
	    "height": "",
		"src" : "vesting-2.jpg",
		"date" : "",
	    "geoloc" : [{
	    	"lat" : "",
	        "long": ""
	    }],
	    "language" : [{
	        "title": "",
	        "description" : "",
	        "alt" : ""
	    },{
	        "title": "",
	        "description" : "",
	        "alt" : ""
	    }]
	},
	"90" : {
		"class" : "",
	    "copyright" : "",
	    "width": "",
	    "height": "",
		"src" : "vesting-3.jpg",
		"date" : "",
	    "geoloc" : [{
	    	"lat" : "",
	        "long": ""
	    }],
	    "language" : [{
	        "title": "",
	        "description" : "",
	        "alt" : ""
	    },{
	        "title": "",
	        "description" : "",
	        "alt" : ""
	    }]
	},
	"91" : {
		"class" : "",
	    "copyright" : "",
	    "width": "",
	    "height": "",
		"src" : "vesting-4.jpg",
		"date" : "",
	    "geoloc" : [{
	    	"lat" : "",
	        "long": ""
	    }],
	    "language" : [{
	        "title": "",
	        "description" : "",
	        "alt" : ""
	    },{
	        "title": "",
	        "description" : "",
	        "alt" : ""
	    }]
	},
	"92" : {
		"class" : "",
	    "copyright" : "",
	    "width": "",
	    "height": "",
		"src" : "vesting-5.jpg",
		"date" : "",
	    "geoloc" : [{
	    	"lat" : "",
	        "long": ""
	    }],
	    "language" : [{
	        "title": "",
	        "description" : "",
	        "alt" : ""
	    },{
	        "title": "",
	        "description" : "",
	        "alt" : ""
	    }]
	},
	"93" : {
		"class" : "",
	    "copyright" : "",
	    "width": "",
	    "height": "",
		"src" : "woman-1.jpg",
		"date" : "",
	    "geoloc" : [{
	    	"lat" : "",
	        "long": ""
	    }],
	    "language" : [{
	        "title": "",
	        "description" : "",
	        "alt" : ""
	    },{
	        "title": "",
	        "description" : "",
	        "alt" : ""
	    }]
	},
	"94" : {
		"class" : "",
	    "copyright" : "",
	    "width": "",
	    "height": "",
		"src" : "woman-2.jpg",
		"date" : "",
	    "geoloc" : [{
	    	"lat" : "",
	        "long": ""
	    }],
	    "language" : [{
	        "title": "",
	        "description" : "",
	        "alt" : ""
	    },{
	        "title": "",
	        "description" : "",
	        "alt" : ""
	    }]
	},
	"95" : {
		"class" : "",
	    "copyright" : "",
	    "width": "",
	    "height": "",
		"src" : "woman-3.jpg",
		"date" : "",
	    "geoloc" : [{
	    	"lat" : "",
	        "long": ""
	    }],
	    "language" : [{
	        "title": "",
	        "description" : "",
	        "alt" : ""
	    },{
	        "title": "",
	        "description" : "",
	        "alt" : ""
	    }]
	},
	"96" : {
		"class" : "",
	    "copyright" : "",
	    "width": "",
	    "height": "",
		"src" : "woman-4.jpg",
		"date" : "",
	    "geoloc" : [{
	    	"lat" : "",
	        "long": ""
	    }],
	    "language" : [{
	        "title": "",
	        "description" : "",
	        "alt" : ""
	    },{
	        "title": "",
	        "description" : "",
	        "alt" : ""
	    }]
	},
	"97" : {
		"class" : "",
	    "copyright" : "",
	    "width": "",
	    "height": "",
		"src" : "portret-16.jpg",
		"date" : "",
	    "geoloc" : [{
	    	"lat" : "",
	        "long": ""
	    }],
	    "language" : [{
	        "title": "",
	        "description" : "",
	        "alt" : ""
	    },{
	        "title": "",
	        "description" : "",
	        "alt" : ""
	    }]
	},
	"98" : {
		"class" : "",
	    "copyright" : "",
	    "width": "",
	    "height": "",
		"src" : "portret-17.jpg",
		"date" : "",
	    "geoloc" : [{
	    	"lat" : "",
	        "long": ""
	    }],
	    "language" : [{
	        "title": "",
	        "description" : "",
	        "alt" : ""
	    },{
	        "title": "",
	        "description" : "",
	        "alt" : ""
	    }]
	},
	"99" : {
		"class" : "",
	    "copyright" : "",
	    "width": "",
	    "height": "",
		"src" : "portret-18.jpg",
		"date" : "",
	    "geoloc" : [{
	    	"lat" : "",
	        "long": ""
	    }],
	    "language" : [{
	        "title": "",
	        "description" : "",
	        "alt" : ""
	    },{
	        "title": "",
	        "description" : "",
	        "alt" : ""
	    }]
	},
	"100" : {
		"class" : "",
	    "copyright" : "",
	    "width": "",
	    "height": "",
		"src" : "portret-19.jpg",
		"date" : "",
	    "geoloc" : [{
	    	"lat" : "",
	        "long": ""
	    }],
	    "language" : [{
	        "title": "",
	        "description" : "",
	        "alt" : ""
	    },{
	        "title": "",
	        "description" : "",
	        "alt" : ""
	    }]
	},
	"101" : {
		"class" : "",
	    "copyright" : "",
	    "width": "",
	    "height": "",
		"src" : "portret-20.jpg",
		"date" : "",
	    "geoloc" : [{
	    	"lat" : "",
	        "long": ""
	    }],
	    "language" : [{
	        "title": "",
	        "description" : "",
	        "alt" : ""
	    },{
	        "title": "",
	        "description" : "",
	        "alt" : ""
	    }]
	},
	"102" : {
		"class" : "",
	    "copyright" : "",
	    "width": "",
	    "height": "",
		"src" : "portret-21.jpg",
		"date" : "",
	    "geoloc" : [{
	    	"lat" : "",
	        "long": ""
	    }],
	    "language" : [{
	        "title": "",
	        "description" : "",
	        "alt" : ""
	    },{
	        "title": "",
	        "description" : "",
	        "alt" : ""
	    }]
	},
	"103" : {
		"class" : "",
	    "copyright" : "",
	    "width": "",
	    "height": "",
		"src" : "portret-22.jpg",
		"date" : "",
	    "geoloc" : [{
	    	"lat" : "",
	        "long": ""
	    }],
	    "language" : [{
	        "title": "",
	        "description" : "",
	        "alt" : ""
	    },{
	        "title": "",
	        "description" : "",
	        "alt" : ""
	    }]
	},
	"104" : {
		"class" : "",
	    "copyright" : "",
	    "width": "",
	    "height": "",
		"src" : "portret-23.jpg",
		"date" : "",
	    "geoloc" : [{
	    	"lat" : "",
	        "long": ""
	    }],
	    "language" : [{
	        "title": "",
	        "description" : "",
	        "alt" : ""
	    },{
	        "title": "",
	        "description" : "",
	        "alt" : ""
	    }]
	},
	"105" : {
		"class" : "",
	    "copyright" : "",
	    "width": "",
	    "height": "",
		"src" : "portret-24.jpg",
		"date" : "",
	    "geoloc" : [{
	    	"lat" : "",
	        "long": ""
	    }],
	    "language" : [{
	        "title": "",
	        "description" : "",
	        "alt" : ""
	    },{
	        "title": "",
	        "description" : "",
	        "alt" : ""
	    }]
	},
	"106" : {
		"class" : "",
	    "copyright" : "",
	    "width": "",
	    "height": "",
		"src" : "portret-25.jpg",
		"date" : "",
	    "geoloc" : [{
	    	"lat" : "",
	        "long": ""
	    }],
	    "language" : [{
	        "title": "",
	        "description" : "",
	        "alt" : ""
	    },{
	        "title": "",
	        "description" : "",
	        "alt" : ""
	    }]
	},
	"107" : {
		"class" : "",
	    "copyright" : "",
	    "width": "",
	    "height": "",
		"src" : "portret-26.jpg",
		"date" : "",
	    "geoloc" : [{
	    	"lat" : "",
	        "long": ""
	    }],
	    "language" : [{
	        "title": "",
	        "description" : "",
	        "alt" : ""
	    },{
	        "title": "",
	        "description" : "",
	        "alt" : ""
	    }]
	},
	"108" : {
		"class" : "",
	    "copyright" : "",
	    "width": "",
	    "height": "",
		"src" : "portret-27.jpg",
		"date" : "",
	    "geoloc" : [{
	    	"lat" : "",
	        "long": ""
	    }],
	    "language" : [{
	        "title": "",
	        "description" : "",
	        "alt" : ""
	    },{
	        "title": "",
	        "description" : "",
	        "alt" : ""
	    }]
	},
	"109" : {
		"class" : "",
	    "copyright" : "",
	    "width": "",
	    "height": "",
		"src" : "portrait-16.jpg",
		"date" : "",
	    "geoloc" : [{
	    	"lat" : "",
	        "long": ""
	    }],
	    "language" : [{
	        "title": "",
	        "description" : "",
	        "alt" : ""
	    },{
	        "title": "",
	        "description" : "",
	        "alt" : ""
	    }]
	}
}